{
    "name": "genpipes",
    "version": "3.1.6-beta",
    "modules": {
        "ucsc": {
            "available_versions": [
                "v346",
                "v326",
                "v359",
                "20140212",
                "v387"
            ],
            "current_version": "v387"
        },
        "trimmomatic": {
            "available_versions": [
                "0.36",
                "0.35",
                "0.32"
            ],
            "current_version": "0.36"
        },
        "tophat": {
            "available_versions": [
                "2.0.13",
                "2.0.14"
            ],
            "current_version": "2.0.14"
        },
        "samtools": {
            "available_versions": [
                "1.4",
                "1.3",
                "1.9",
                "1.3.1",
                "1.4.1",
                "0.1.19",
                "1.2",
                "1.0"
            ],
            "current_version": "1.9"
        },
        "pandoc": {
            "available_versions": [
                "1.15.2",
                "1.13.1"
            ],
            "current_version": "1.15.2"
        },
        "star": {
            "available_versions": [
                "2.5.3a",
                "2.5.2a",
                "2.7.3a",
                "2.4.0f1",
                "2.5.0c",
                "2.7.2b",
                "2.5.1b",
                "2.5.4b",
                "2.5.2b"
            ],
            "current_version": "2.7.3a"
        },
        "bcftools": {
            "available_versions": [
                "1.6",
                "1.3",
                "1.8",
                "1.9",
                "1.2"
            ],
            "current_version": "1.9"
        },
        "bismark": {
            "available_versions": [
                "0.21.0",
                "0.16.3",
                "0.18.2",
                "0.17.0",
                "0.18.1",
                "0.16.1"
            ],
            "current_version": "0.21.0"
        },
        "bowtie2": {
            "available_versions": [
                "2.3.1",
                "2.3.0",
                "2.2.9",
                "2.2.4",
                "2.2.3",
                "2.3.5"
            ],
            "current_version": "2.3.5"
        },
        "bowtie": {
            "available_versions": [
                "1.0.0",
                "1.2.0",
                "1.2.2",
                "1.1.2"
            ],
            "current_version": "1.2.2"
        },
        "java": {
            "available_versions": [
                "openjdk-jdk1.6.0_38",
                "openjdk-jdk1.7.0_60",
                "openjdk-jdk1.8.0_72"
            ],
            "current_version": "openjdk-jdk1.8.0_72"
        },
        "picard": {
            "available_versions": [
                "2.10.7",
                "2.17.3",
                "2.0.1",
                "2.9.0",
                "1.123",
                "1.118"
            ],
            "current_version": "2.10.7"
        },
        "bvatools": {
            "available_versions": [
                "1.6",
                "1.4",
                "1.3",
                "1.5"
            ],
            "current_version": "1.6"
        }
    }
}